Tidyr Examples
…
#pivot wider function 

pre_post%>%
  pivot_longer(., 
               col = c('test1', 'test2'),  
               names_to = 'test',
               values_to = "score")

## # A tibble: 32 x 4
##    id     spec  test  score
##    <chr>  <chr> <chr> <dbl>
##  1 span01 g1_lo test1  64.3
##  2 span01 g1_lo test2  69.2
##  3 span02 g1_lo test1  59.8
##  4 span02 g1_lo test2  63.7
##  5 span03 g1_hi test1  66.1
##  6 span03 g1_hi test2  70.9
##  7 span04 g1_hi test1  72.8
##  8 span04 g1_hi test2  79.2
##  9 span05 g2_lo test1  68.3
## 10 span05 g2_lo test2  75.4
## #  with 22 more rows
…
